{
  "apps" : [{
    "name"            : "node-project",
    "script"          : "./dist/main.js",
    "cwd"             : "./dist",
    "watch"           : false,
    "kill_timeout"    : 10000,
    "env": {
      "NODE_ENV"     : "prod",
      "PORT"         : 3001
    },
    "log_date_format" : "YYYY-MM-DD HH:mm:ss",
    "error_file"      : "./logs/pm2/api-err.log",
    "out_file"        : "./logs/pm2/api-out.log"
  },{
    "name"            : "worker",
    "script"          : "./dist/worker.main.js",
    "cwd"             : "./dist",
    "watch"           : false,
    "kill_timeout"    : 10000,
    "env": {
      "NODE_ENV"     : "prod",
      "PORT"         : 3001
    },
    "log_date_format" : "YYYY-MM-DD HH:mm:ss",
    "error_file"      : "./logs/pm2/worker-err.log",
    "out_file"        : "./logs/pm2/worker-out.log"
  }]
}
